…
The main function is `mtscr_scores()` which can return a df with scores
for each participant, each item or each participant-item combination.
Scores come from two models – `all_max` and `all_top2`. A value for a
participant is the maximum value predicted by the model for that
participant.

``` r
library("mtscr")
data("mtscr_creativity", package = "mtscr")

mtscr_score(mtscr_creativity, id, item, SemDis_MEAN)
#> # A tibble: 149 × 3
#>       id .all_max .all_top2
#>    <dbl>    <dbl>     <dbl>
#>  1 84176    0.783    0.516 
#>  2 84177    0.133   -0.0466
#>  3 84178    0.568    0.348 
#>  4 84188    1.17     0.975 
#>  5 84193    0.342    0.0979
#>  6 84206    0.331    0.148 
#>  7 84211    0.595    0.484 
#>  8 84226    0.879    0.658 
#>  9 84228    0.778    0.587 
#> 10 84236    1.10     0.870 
#> # ℹ 139 more rows
```
…
